%YAML 1.1
%TAG !u! tag:unity3d.com,2011:
--- !u!1 &6221905238426453651
GameObject:
  m_ObjectHideFlags: 0
  m_CorrespondingSourceObject: {fileID: 0}
  m_PrefabInstance: {fileID: 0}
  m_PrefabAsset: {fileID: 0}
  serializedVersion: 6
  m_Component:
  - component: {fileID: 141046126863768330}
  m_Layer: 0
  m_Name: Cannon
  m_TagString: Untagged
  m_Icon: {fileID: 0}
  m_NavMeshLayer: 0
  m_StaticEditorFlags: 0
  m_IsActive: 1
--- !u!4 &141046126863768330
Transform:
  m_ObjectHideFlags: 0
  m_CorrespondingSourceObject: {fileID: 0}
  m_PrefabInstance: {fileID: 0}
  m_PrefabAsset: {fileID: 0}
  m_GameObject: {fileID: 6221905238426453651}
  m_LocalRotation: {x: 0, y: 0, z: 0, w: 1}
  m_LocalPosition: {x: 0, y: 0, z: 0}
  m_LocalScale: {x: 1, y: 1, z: 1}
  m_Children:
  - {fileID: 5489821211966877168}
  m_Father: {fileID: 0}
  m_RootOrder: 0
  m_LocalEulerAnglesHint: {x: 0, y: 0, z: 0}
--- !u!1001 &5489821211967238960
PrefabInstance:
  m_ObjectHideFlags: 0
  serializedVersion: 2
  m_Modification:
    m_TransformParent: {fileID: 141046126863768330}
    m_Modifications:
    - target: {fileID: 169560, guid: 04e5ad3b4d0e23842a04b203a7ef5e46, type: 3}
      propertyPath: m_Name
      value: SM_Prop_Cannon_01
      objectReference: {fileID: 0}
    - target: {fileID: 433856, guid: 04e5ad3b4d0e23842a04b203a7ef5e46, type: 3}
      propertyPath: m_RootOrder
      value: 0
      objectReference: {fileID: 0}
    - target: {fileID: 433856, guid: 04e5ad3b4d0e23842a04b203a7ef5e46, type: 3}
      propertyPath: m_LocalPosition.x
      value: 0
      objectReference: {fileID: 0}
    - target: {fileID: 433856, guid: 04e5ad3b4d0e23842a04b203a7ef5e46, type: 3}
      propertyPath: m_LocalPosition.y
      value: 0
      objectReference: {fileID: 0}
    - target: {fileID: 433856, guid: 04e5ad3b4d0e23842a04b203a7ef5e46, type: 3}
      propertyPath: m_LocalPosition.z
      value: 0
      objectReference: {fileID: 0}
    - target: {fileID: 433856, guid: 04e5ad3b4d0e23842a04b203a7ef5e46, type: 3}
      propertyPath: m_LocalRotation.w
      value: 1
      objectReference: {fileID: 0}
    - target: {fileID: 433856, guid: 04e5ad3b4d0e23842a04b203a7ef5e46, type: 3}
      propertyPath: m_LocalRotation.x
      value: 0
      objectReference: {fileID: 0}
    - target: {fileID: 433856, guid: 04e5ad3b4d0e23842a04b203a7ef5e46, type: 3}
      propertyPath: m_LocalRotation.y
      value: 0
      objectReference: {fileID: 0}
    - target: {fileID: 433856, guid: 04e5ad3b4d0e23842a04b203a7ef5e46, type: 3}
      propertyPath: m_LocalRotation.z
      value: 0
      objectReference: {fileID: 0}
    - target: {fileID: 433856, guid: 04e5ad3b4d0e23842a04b203a7ef5e46, type: 3}
      propertyPath: m_LocalEulerAnglesHint.x
      value: 0
      objectReference: {fileID: 0}
    - target: {fileID: 433856, guid: 04e5ad3b4d0e23842a04b203a7ef5e46, type: 3}
      propertyPath: m_LocalEulerAnglesHint.y
      value: 0
      objectReference: {fileID: 0}
    - target: {fileID: 433856, guid: 04e5ad3b4d0e23842a04b203a7ef5e46, type: 3}
      propertyPath: m_LocalEulerAnglesHint.z
      value: 0
      objectReference: {fileID: 0}
    m_RemovedComponents: []
  m_SourcePrefab: {fileID: 100100000, guid: 04e5ad3b4d0e23842a04b203a7ef5e46, type: 3}
--- !u!4 &5489821211966877168 stripped
Transform:
  m_CorrespondingSourceObject: {fileID: 433856, guid: 04e5ad3b4d0e23842a04b203a7ef5e46, type: 3}
  m_PrefabInstance: {fileID: 5489821211967238960}
  m_PrefabAsset: {fileID: 0}
